partytemplatesfile version 1
111
pt_none none 2 0 1 7 -1 -1 -1 -1 -1 -1 
pt_disabled_01 {!}disabled_01 1052 0 1 7 -1 -1 -1 -1 -1 -1 
pt_disabled_02 {!}disabled_02 1052 0 2 7 -1 -1 -1 -1 -1 -1 
pt_disabled_03 {!}disabled_03 1052 0 1 7 -1 -1 -1 -1 -1 -1 
pt_village_defenders Village_Defenders 6 0 1 7 24 10 20 0 40 0 4 0 -1 -1 -1 -1 
pt_cattle_herd Cattle_Herd 2814749767106598 0 3 7 22 80 120 0 -1 -1 -1 -1 -1 
pt_looters Mercenary_War_Band 2251799813685331 0 2 312 46 3 12 0 43 3 6 0 29 6 12 0 36 3 8 0 33 3 6 0 51 3 12 0 
pt_manhunters Manhunters 89 0 21 137 277 7 19 0 278 3 11 0 279 1 7 0 270 1 7 0 223 0 6 1 224 0 4 1 
pt_cheese_rustlers Cheese_Rustlers 562949953683465 0 2 312 229 15 25 0 -1 -1 -1 -1 -1 
pt_cheese_paladins Cheese_Rustlers 5629499534475266 0 2 7 230 8 12 0 -1 -1 -1 -1 -1 
pt_scholars Scholars 5629499534606426 0 1 11 227 10 10 0 -1 -1 -1 -1 -1 
pt_nemesis Hired_Blades 562949953683458 0 3 7 45 6 18 0 49 9 27 0 54 9 18 0 39 9 18 0 30 6 18 0 34 3 12 0 
pt_nemesis2 Hired_Blades 262146 0 24 11 34 100 150 0 45 50 75 0 -1 -1 -1 -1 
pt_nemesis3 Mercenary_Army 562949953421314 0 19 11 34 200 250 0 45 50 75 0 -1 -1 -1 -1 
pt_elites_fac1 Usurpers 562949953683517 0 3 7 76 9 27 0 77 9 27 0 75 27 36 0 -1 -1 -1 
pt_elites_fac2 Usurpers 562949953683521 0 3 7 100 27 36 0 101 27 36 0 96 36 45 0 -1 -1 -1 
pt_elites_fac3 Usurpers 562949953683526 0 3 7 126 27 42 0 125 42 90 0 122 42 72 0 -1 -1 -1 
pt_elites_fac4 Usurpers 562949953683530 0 3 7 149 27 42 0 150 27 42 0 148 18 36 0 -1 -1 -1 
pt_elites_fac5 Usurpers 562949953683534 0 3 7 174 42 60 0 175 18 27 0 170 27 36 0 -1 -1 -1 
pt_elites_fac6 Usurpers 562949953683538 0 3 7 217 20 20 0 216 15 45 0 213 15 45 0 201 35 65 0 -1 -1 
pt_bandits_awaiting_ransom2 Bandits_Awaiting_Ransom 2533274790789129 0 3 312 224 24 58 0 1023 1 1 1 -1 -1 -1 -1 
pt_kidnapped_wife Miller's_Wife 262154 0 3 7 1023 1 1 0 -1 -1 -1 -1 -1 
pt_spymaster Spymaster 2533274790789210 0 3 312 1022 1 1 0 -1 -1 -1 -1 -1 
pt_steppe_bandits Steppe_Bandits 562949953421319 0 2 312 242 15 58 0 243 9 12 0 -1 -1 -1 -1 
pt_taiga_bandits Tundra_Bandits 562949953421321 0 2 312 263 12 38 0 264 7 15 0 265 3 5 0 -1 -1 -1 
pt_desert_bandits Desert_Bandits 562949953421398 0 2 312 240 22 58 0 -1 -1 -1 -1 -1 
pt_forest_bandits Forest_Bandits 562949953421397 0 23 312 254 9 32 0 255 7 15 0 256 3 5 0 40 0 4 1 -1 -1 
pt_mountain_bandits Mountain_Bandits 562949953421399 0 26 312 260 12 40 0 261 8 15 0 262 2 5 0 40 0 2 1 -1 -1 
pt_sea_raiders Sea_Raiders 562949953421396 0 2 312 257 14 35 0 258 5 10 0 259 1 5 0 -1 -1 -1 
pt_deserters Deserters 844424930132056 0 25 312 -1 -1 -1 -1 -1 -1 
pt_merchant_caravan Merchant_Caravan 5629499534606427 0 1 11 282 1 1 0 280 5 25 0 -1 -1 -1 -1 
pt_troublesome_bandits Troublesome_Bandits 2533274790658057 0 2 312 224 14 55 0 -1 -1 -1 -1 -1 
pt_bandits_awaiting_ransom Bandits_Awaiting_Ransom 2533274790789129 0 3 312 237 24 58 0 286 1 1 1 -1 -1 -1 -1 
pt_kidnapped_girl Kidnapped_Girl 262154 0 3 7 286 1 1 0 -1 -1 -1 -1 -1 
pt_smugglers Smugglers 2251799814012934 0 3 7 224 3 3 0 254 3 3 0 260 3 3 0 -1 -1 -1 
pt_village_farmers_militia Village_Farmers_and_Militia 67108870 0 3 7 24 4 9 0 40 3 8 0 268 4 11 0 269 2 5 0 271 1 3 0 274 1 3 0 
pt_village_farmers Village_Farmers 67108870 0 3 7 24 5 10 0 40 3 8 0 -1 -1 -1 -1 
pt_spy_partners Unremarkable_Travellers 2814749767434328 0 3 7 1018 1 1 0 280 5 11 0 -1 -1 -1 -1 
pt_runaway_serfs Runaway_Serfs 2251799814012934 0 3 7 24 6 7 0 40 3 3 0 -1 -1 -1 -1 
pt_spy Ordinary_Townsman 1125899907170394 0 3 7 1017 1 1 0 -1 -1 -1 -1 -1 
pt_sacrificed_messenger Sacrificed_Messenger 844424930459650 0 3 7 -1 -1 -1 -1 -1 -1 
pt_forager_party Foraging_Party 1407374887747586 0 1 7 -1 -1 -1 -1 -1 -1 
pt_swadian_scouts Scouts 281474980905019 0 13 312 69 4 8 0 68 2 4 0 61 1 3 0 -1 -1 -1 
pt_vaegir_scouts Scouts 281474980905023 0 14 312 92 6 14 0 94 1 3 0 85 1 4 0 -1 -1 -1 
pt_khergit_scouts Scouts 281474980905027 0 15 312 111 2 4 0 113 4 8 0 108 3 9 0 -1 -1 -1 
pt_nord_scouts Scouts 281474980905032 0 16 312 142 1 2 0 140 3 9 0 134 1 3 0 -1 -1 -1 
pt_rhodok_scouts Scouts 281474980905036 0 17 312 165 4 8 0 159 2 4 0 167 1 1 0 -1 -1 -1 
pt_swadian_patrol Patrol 562949957615674 0 13 137 73 2 4 0 61 6 12 0 60 12 18 0 71 3 9 0 68 6 18 0 76 1 1 0 
pt_vaegir_patrol Patrol 562949957615678 0 14 137 95 3 9 0 89 5 9 0 86 3 12 0 92 3 12 0 91 9 27 0 101 1 1 0 
pt_khergit_patrol Patrol 562949957615682 0 15 137 111 6 18 0 108 6 18 0 125 1 1 0 121 2 7 0 114 12 27 0 -1 
pt_nord_patrol Patrol 562949957615687 0 16 137 136 3 9 0 138 3 9 0 143 1 1 0 142 6 12 0 134 9 18 0 -1 
pt_rhodok_patrol Patrol 562949957615691 0 17 137 175 1 1 0 174 5 9 0 157 9 10 0 165 9 10 0 160 9 10 0 -1 
pt_crusaders Holy_Crusaders 562949957615676 0 13 137 76 3 6 0 77 5 11 0 -1 -1 -1 -1 
pt_ivory_guards Ivory_Guards 562949957615680 0 14 137 100 6 12 0 101 2 7 0 96 1 1 0 -1 -1 -1 
pt_red_horde Red_Horde 562949957615684 0 15 137 112 27 48 0 108 27 48 0 119 27 48 0 124 18 36 0 126 2 2 0 125 2 2 0 
pt_blue_horde Blue_Horde 562949957615685 0 15 137 112 27 48 0 108 27 48 0 117 27 48 0 122 9 18 0 126 1 4 0 125 0 4 0 
pt_raiders Berserkers 562949957615689 0 16 137 138 3 9 0 149 2 7 0 150 1 3 0 136 1 3 0 -1 -1 
pt_councilmen Councilmen 562949957615693 0 17 137 169 3 9 0 175 1 3 0 174 6 18 0 168 3 9 0 161 3 9 0 -1 
pt_messenger_party Messenger 4194306 0 1 7 -1 -1 -1 -1 -1 -1 
pt_raider_party Raiders 4503599627632642 0 1 312 -1 -1 -1 -1 -1 -1 
pt_raider_captives Raider_Captives 0 0 1 0 40 6 30 1 -1 -1 -1 -1 -1 
pt_kingdom_caravan_party Caravan 7036874421960741 0 1 7 282 1 1 0 280 12 40 0 -1 -1 -1 -1 
pt_swadian_prisoner_train Prisoner_Train 1407374887747586 0 13 7 60 5 10 0 72 6 8 0 68 7 12 0 237 10 24 1 -1 -1 
pt_vaegir_prisoner_train Prisoner_Train 1407374887747586 0 14 7 84 5 10 0 95 3 5 0 91 9 15 0 237 10 24 1 -1 -1 
pt_khergit_prisoner_train Prisoner_Train 1407374887747586 0 15 7 111 18 36 0 108 18 36 0 242 17 95 1 243 3 36 1 -1 -1 
pt_nord_prisoner_train Prisoner_Train 1407374887747586 0 16 7 134 14 36 0 257 5 18 1 140 2 8 0 143 1 1 0 -1 -1 
pt_rhodok_prisoner_train Prisoner_Train 1407374887747586 0 17 7 157 10 20 0 163 10 20 0 237 10 24 1 -1 -1 -1 
pt_sarranid_scouts Sarranid_Scouts 281474980905040 0 18 312 207 3 9 0 206 6 12 0 202 1 1 0 -1 -1 -1 
pt_sarranid_patrol Sarranid_Patrol 562949957615695 0 18 137 200 4 8 0 199 5 9 0 201 9 10 0 202 9 10 0 207 9 10 0 203 1 1 0 
pt_sarranid_crusaders Jihadists 562949957615697 0 18 137 215 2 3 0 212 4 8 0 213 4 8 0 -1 -1 -1 
pt_sarranid_prisoner_train Prisoner_Train 1407374887747586 0 18 7 199 5 10 0 200 6 8 0 208 7 12 0 237 10 24 1 -1 -1 
pt_mamlukes Jihadists 562949957615697 0 18 137 203 3 3 0 214 7 10 0 200 10 12 0 -1 -1 -1 
pt_default_prisoners Default_Prisoners 0 0 1 0 224 5 10 1 -1 -1 -1 -1 -1 
pt_prisoner_train_party Prisoner_Train 1407374887747586 0 1 7 -1 -1 -1 -1 -1 -1 
pt_routed_warriors Routed_Enemies 3 0 1 137 -1 -1 -1 -1 -1 -1 
pt_kingdom_hero_party War_Party 4259844 0 1 137 -1 -1 -1 -1 -1 -1 
pt_kingdom_1_reinforcements_a {!}kingdom_1_reinforcements_a 0 0 1 0 58 4 9 0 59 3 8 0 70 2 7 0 66 1 6 0 -1 -1 
pt_kingdom_1_reinforcements_b {!}kingdom_1_reinforcements_b 0 0 1 0 60 3 8 0 69 2 7 0 62 1 6 0 -1 -1 -1 
pt_kingdom_1_reinforcements_c {!}kingdom_1_reinforcements_c 0 0 1 0 74 2 7 0 65 1 6 0 -1 -1 -1 -1 
pt_kingdom_2_reinforcements_a {!}kingdom_2_reinforcements_a 0 0 1 0 82 4 9 0 83 3 8 0 94 2 7 0 90 1 6 0 -1 -1 
pt_kingdom_2_reinforcements_b {!}kingdom_2_reinforcements_b 0 0 1 0 84 3 8 0 86 2 7 0 91 1 6 0 -1 -1 -1 
pt_kingdom_2_reinforcements_c {!}kingdom_2_reinforcements_c 0 0 1 0 93 2 7 0 96 1 6 0 -1 -1 -1 -1 
pt_kingdom_3_reinforcements_a {!}kingdom_3_reinforcements_a 0 0 1 0 106 4 9 0 114 3 8 0 107 2 7 0 115 1 6 0 -1 -1 
pt_kingdom_3_reinforcements_b {!}kingdom_3_reinforcements_b 0 0 1 0 118 3 8 0 111 2 7 0 108 1 6 0 -1 -1 -1 
pt_kingdom_3_reinforcements_c {!}kingdom_3_reinforcements_c 0 0 1 0 120 2 7 0 124 1 6 0 -1 -1 -1 -1 
pt_kingdom_4_reinforcements_a {!}kingdom_4_reinforcements_a 0 0 1 0 131 4 9 0 133 3 8 0 134 2 7 0 139 1 6 0 -1 -1 
pt_kingdom_4_reinforcements_b {!}kingdom_4_reinforcements_b 0 0 1 0 141 3 8 0 135 2 7 0 137 1 6 0 -1 -1 -1 
pt_kingdom_4_reinforcements_c {!}kingdom_4_reinforcements_c 0 0 1 0 146 2 7 0 138 1 6 0 -1 -1 -1 -1 
pt_kingdom_5_reinforcements_a {!}kingdom_5_reinforcements_a 0 0 1 0 155 4 9 0 156 3 8 0 162 2 7 0 166 1 6 0 -1 -1 
pt_kingdom_5_reinforcements_b {!}kingdom_5_reinforcements_b 0 0 1 0 163 3 8 0 167 2 7 0 157 1 6 0 -1 -1 -1 
pt_kingdom_5_reinforcements_c {!}kingdom_5_reinforcements_c 0 0 1 0 169 2 7 0 170 1 6 0 -1 -1 -1 -1 
pt_dark_knights_reinforcements_a {!}dark_knights_reinforcements_a 0 0 1 0 180 14 16 0 193 8 10 0 181 8 10 0 -1 -1 -1 
pt_dark_knights_reinforcements_b {!}dark_knights_reinforcements_b 0 0 1 0 183 7 9 0 185 7 9 0 186 8 10 0 -1 -1 -1 
pt_dark_knights_reinforcements_c {!}dark_knights_reinforcements_c 0 0 1 0 188 3 5 0 189 3 5 0 190 5 7 0 -1 -1 -1 
pt_kingdom_6_reinforcements_a {!}kingdom_6_reinforcements_a 0 0 1 0 197 4 9 0 205 3 8 0 198 2 7 0 199 1 6 0 -1 -1 
pt_kingdom_6_reinforcements_b {!}kingdom_6_reinforcements_b 0 0 1 0 208 3 8 0 206 2 7 0 202 1 6 0 -1 -1 -1 
pt_kingdom_6_reinforcements_c {!}kingdom_6_reinforcements_c 0 0 1 0 211 2 7 0 214 1 6 0 -1 -1 -1 -1 
pt_steppe_bandit_lair Steppe_Bandit_Lair 562949955519531 0 3 312 242 15 58 0 -1 -1 -1 -1 -1 
pt_taiga_bandit_lair Tundra_Bandit_Lair 562949955519531 0 3 312 263 15 58 0 -1 -1 -1 -1 -1 
pt_desert_bandit_lair Desert_Bandit_Lair 562949955519531 0 3 312 240 15 58 0 -1 -1 -1 -1 -1 
pt_forest_bandit_lair Forest_Bandit_Camp 562949955519531 0 3 312 254 15 58 0 -1 -1 -1 -1 -1 
pt_mountain_bandit_lair Mountain_Bandit_Hideout 562949955519531 0 3 312 260 15 58 0 -1 -1 -1 -1 -1 
pt_sea_raider_lair Sea_Raider_Landing 562949955519531 0 3 312 257 15 50 0 -1 -1 -1 -1 -1 
pt_looter_lair Kidnappers'_Hideout 562949955519531 0 3 312 223 15 25 0 -1 -1 -1 -1 -1 
pt_bandit_lair_templates_end {!}bandit_lair_templates_end 562949953422345 0 2 312 257 15 50 0 -1 -1 -1 -1 -1 
pt_leaded_looters Band_of_robbers 2251799813947401 0 3 312 1048 1 1 0 223 3 3 0 -1 -1 -1 -1 
pt_town Town 4219916 0 0 0 -1 -1 -1 -1 -1 -1 
pt_castle Castle 4215838 0 0 0 -1 -1 -1 -1 -1 -1 
pt_village Village 2114575 0 0 0 -1 -1 -1 -1 -1 -1 
pt_bridge Bridge 541736 0 0 0 -1 -1 -1 -1 -1 -1 
pt_grounds Grounds 2118695 0 0 0 -1 -1 -1 -1 -1 -1 
